<mxfile host="app.diagrams.net" modified="2023-12-01T07:54:37.998Z" agent="Mozilla/5.0 (X11; Linux x86_64) AppleWebKit/537.36 (KHTML, like Gecko) Chrome/119.0.0.0 Safari/537.36" version="22.1.5" etag="JgtJKm8xwLzqK_rqZAPH" type="gitlab">
  <diagram name="Страница — 1" id="vLAokOR-coVO_7nas5HS">
    <mxGraphModel>
      <root>
        <mxCell id="0" />
        <mxCell id="1" parent="0" />
      </root>
    </mxGraphModel>
  </diagram>
</mxfile>
